{
    "content": [
        {
            "id": "a1b2c3d4-e5f6-7890-abcd-ef1234567890",
            "blockId": "R102",
            "ruNumber": 34906,
            "client": {
                "code": "91234567",
                "description": "NORTHERN TIMBER CO"
            },
            "licenseNumber": "XY7891",
            "cuttingPermit": "R02",
            "timberMark": "HK4R02",
            "multiMark": false,
            "sampling": {
                "code": "AGR",
                "description": "Aggregate"
            },
            "district": {
                "code": "DKA",
                "description": "Thompson Rivers"
            },
            "status": {
                "code": "SUB",
                "description": "Submitted"
            },
            "lastUpdated": "2025-08-25T10:35:06"
        },
        {
            "id": "b2c3d4e5-f6a7-8901-bcde-f12345678901",
            "blockId": "R105",
            "ruNumber": 34906,
            "client": {
                "code": "91234567",
                "description": "NORTHERN TIMBER CO"
            },
            "licenseNumber": "BC4523",
            "cuttingPermit": "B09",
            "timberMark": "DW9B09",
            "multiMark": true,
            "sampling": {
                "code": "AGR",
                "description": "Aggregate"
            },
            "district": {
                "code": "DKA",
                "description": "Thompson Rivers"
            },
            "status": {
                "code": "SUB",
                "description": "Submitted"
            },
            "lastUpdated": "2025-08-25T10:35:06"
        },
        {
            "id": "c3d4e5f6-a7b8-9012-cdef-123456789012",
            "blockId": "R571",
            "ruNumber": 34906,
            "client": {
                "code": "91234567",
                "description": "NORTHERN TIMBER CO"
            },
            "licenseNumber": "XY7891",
            "cuttingPermit": "R02",
            "timberMark": "HK4R02",
            "multiMark": true,
            "sampling": {
                "code": "AGR",
                "description": "Aggregate"
            },
            "district": {
                "code": "DKA",
                "description": "Thompson Rivers"
            },
            "status": {
                "code": "SUB",
                "description": "Submitted"
            },
            "lastUpdated": "2025-08-25T10:35:06"
        },
        {
            "id": "d4e5f6a7-b8c9-0123-def0-234567890123",
            "blockId": "R569",
            "ruNumber": 34906,
            "client": {
                "code": "91234567",
                "description": "NORTHERN TIMBER CO"
            },
            "licenseNumber": "XY7891",
            "cuttingPermit": "R02",
            "timberMark": "HK4R02",
            "multiMark": true,
            "sampling": {
                "code": "AGR",
                "description": "Aggregate"
            },
            "district": {
                "code": "DKA",
                "description": "Thompson Rivers"
            },
            "status": {
                "code": "SUB",
                "description": "Submitted"
            },
            "lastUpdated": "2025-08-25T10:35:06"
        },
        {
            "id": "e5f6a7b8-c9d0-1234-ef01-345678901234",
            "blockId": "R341",
            "ruNumber": 34906,
            "client": {
                "code": "91234567",
                "description": "NORTHERN TIMBER CO"
            },
            "licenseNumber": "XY7891",
            "cuttingPermit": "R02",
            "timberMark": "HK4R02",
            "multiMark": true,
            "sampling": {
                "code": "AGR",
                "description": "Aggregate"
            },
            "district": {
                "code": "DKA",
                "description": "Thompson Rivers"
            },
            "status": {
                "code": "SUB",
                "description": "Submitted"
            },
            "lastUpdated": "2025-08-25T10:35:06"
        },
        {
            "id": "f6a7b8c9-d0e1-2345-f012-456789012345",
            "blockId": "R336",
            "ruNumber": 34906,
            "client": {
                "code": "91234567",
                "description": "NORTHERN TIMBER CO"
            },
            "licenseNumber": "XY7891",
            "cuttingPermit": "R02",
            "timberMark": "HK4R02",
            "multiMark": true,
            "sampling": {
                "code": "AGR",
                "description": "Aggregate"
            },
            "district": {
                "code": "DKA",
                "description": "Thompson Rivers"
            },
            "status": {
                "code": "SUB",
                "description": "Submitted"
            },
            "lastUpdated": "2025-08-25T10:35:06"
        },
        {
            "id": "a7b8c9d0-e1f2-3456-0123-567890123456",
            "blockId": "R274",
            "ruNumber": 34906,
            "client": {
                "code": "91234567",
                "description": "NORTHERN TIMBER CO"
            },
            "licenseNumber": "XY7891",
            "cuttingPermit": "R02",
            "timberMark": "HK4R02",
            "multiMark": true,
            "sampling": {
                "code": "AGR",
                "description": "Aggregate"
            },
            "district": {
                "code": "DKA",
                "description": "Thompson Rivers"
            },
            "status": {
                "code": "SUB",
                "description": "Submitted"
            },
            "lastUpdated": "2025-08-25T10:35:06"
        },
        {
            "id": "b8c9d0e1-f2a3-4567-1234-678901234567",
            "blockId": "R218",
            "ruNumber": 34906,
            "client": {
                "code": "91234567",
                "description": "NORTHERN TIMBER CO"
            },
            "licenseNumber": "XY7891",
            "cuttingPermit": "R02",
            "timberMark": "HK4R02",
            "multiMark": true,
            "sampling": {
                "code": "AGR",
                "description": "Aggregate"
            },
            "district": {
                "code": "DKA",
                "description": "Thompson Rivers"
            },
            "status": {
                "code": "SUB",
                "description": "Submitted"
            },
            "lastUpdated": "2025-08-25T10:35:06"
        },
        {
            "id": "c9d0e1f2-a3b4-5678-2345-789012345678",
            "blockId": "26",
            "ruNumber": 36834,
            "client": {
                "code": "92345678",
                "description": "PACIFIC LOGGING LTD"
            },
            "licenseNumber": "WM194",
            "cuttingPermit": "EA",
            "timberMark": "WBMJEA",
            "multiMark": false,
            "sampling": {
                "code": "BLK",
                "description": "Cutblock"
            },
            "district": {
                "code": "DND",
                "description": "Nadina"
            },
            "status": {
                "code": "DFT",
                "description": "Draft"
            },
            "lastUpdated": "2025-08-24T09:10:28"
        },
        {
            "id": "d0e1f2a3-b4c5-6789-3456-890123456789",
            "blockId": "CAT2",
            "ruNumber": 10501,
            "client": {
                "code": "92345678",
                "description": "PACIFIC LOGGING LTD"
            },
            "licenseNumber": "DD35K",
            "cuttingPermit": " ",
            "timberMark": "DD35':",
            "multiMark": false,
            "sampling": {
                "code": "BLK",
                "description": "Cutblock"
            },
            "district": {
                "code": "DCS",
                "description": "Cascades"
            },
            "status": {
                "code": "APP",
                "description": "Approved"
            },
            "lastUpdated": "2012-01-27T10:34:58"
        }
    ],
    "page": {
        "size": 10,
        "number": 0,
        "totalElements": 12,
        "totalPages": 2
    }
}